<svg width="65" height="65" viewBox="0 0 65 65" fill="none" xmlns="http://www.w3.org/2000/svg">
<path d="M24.6667 3.33333C24.6667 3.33333 24.6667 0 28 0C31.3333 0 31.3333 3.33333 31.3333 3.33333V6.66667C31.3333 6.66667 31.3333 10 28 10C24.6667 10 24.6667 6.66667 24.6667 6.66667V3.33333ZM9.66667 21.6667C9.66667 21.6667 13 21.6667 13 25C13 28.3333 9.66667 28.3333 9.66667 28.3333H6.33333C6.33333 28.3333 3 28.3333 3 25C3 21.6667 6.33333 21.6667 6.33333 21.6667H9.66667ZM16.12 10.0717C16.12 10.0717 18.4767 12.4283 16.12 14.785C13.7633 17.1417 11.4067 14.785 11.4067 14.785L9.04833 12.43C9.04833 12.43 6.69167 10.0733 9.04833 7.715C11.4067 5.35833 13.7633 7.715 13.7633 7.715L16.12 10.0717ZM44.595 14.785C44.595 14.785 42.2383 17.1417 39.8817 14.785C37.525 12.4283 39.8817 10.0717 39.8817 10.0717L42.2383 7.715C42.2383 7.715 44.595 5.35833 46.9517 7.715C49.3083 10.0717 46.9517 12.4283 46.9517 12.4283L44.595 14.785Z" fill="#FFAC33"/>
<path d="M28 38.3333C35.3638 38.3333 41.3334 32.3638 41.3334 25C41.3334 17.6362 35.3638 11.6667 28 11.6667C20.6362 11.6667 14.6667 17.6362 14.6667 25C14.6667 32.3638 20.6362 38.3333 28 38.3333Z" fill="#FFAC33"/>
<g filter="url(#filter0_dd_30_5523)">
<path d="M50.0384 21.3333C48.7 21.3333 47.4134 21.5317 46.1984 21.9C44.7617 17.885 40.8634 15 36.2634 15C31.3317 15 27.2017 18.3183 26.0584 22.7917C24.8367 21.8883 23.3317 21.3333 21.6817 21.3333C17.6534 21.3333 14.39 24.5233 14.39 28.4583C14.39 29.4133 14.59 30.3233 14.9384 31.1567C14.2434 30.9683 13.525 30.8333 12.7684 30.8333C8.29335 30.8333 4.66669 34.3767 4.66669 38.75C4.66669 43.1233 8.29335 46.6667 12.7684 46.6667H50.0367C57.1967 46.6667 63 40.9967 63 34C63 27.0033 57.1967 21.3333 50.0384 21.3333Z" fill="#E1E8ED"/>
</g>
<g filter="url(#filter1_d_30_5523)">
<path d="M22.9983 56.6017L22.81 50.9L18.0283 53.7467C16.9633 54.3217 16.2583 55.4533 16.3016 56.745C16.3633 58.5817 17.9116 60.0383 19.7616 60C21.61 59.9617 23.06 58.4383 22.9983 56.6017ZM11.3666 54.035L11.1766 48.3333L6.39496 51.18C5.32996 51.755 4.62329 52.8867 4.66829 54.1783C4.72996 56.0167 6.27829 57.4717 8.12829 57.4333C9.97829 57.395 11.4283 55.8717 11.3666 54.035ZM34.7 54.935L34.5116 49.2333L29.73 52.08C28.665 52.655 27.96 53.7867 28.0033 55.0783C28.065 56.915 29.6133 58.3717 31.4633 58.3333C33.3116 58.295 34.7616 56.7717 34.7 54.935ZM44.6633 56.6017L44.475 50.9L39.6933 53.7467C38.6283 54.3217 37.9233 55.4533 37.9683 56.745C38.03 58.5817 39.5766 60.0383 41.4283 60C43.2766 59.9617 44.725 58.4383 44.6633 56.6017ZM54.6983 54.035L54.5083 48.3333L49.7266 51.18C48.6616 51.755 47.9566 52.8867 48.0016 54.1783C48.0633 56.0167 49.61 57.4717 51.4616 57.4333C53.3116 57.395 54.76 55.8717 54.6983 54.035Z" fill="#5DADEC"/>
</g>
<defs>
<filter id="filter0_dd_30_5523" x="2.66669" y="14" width="62.3333" height="35.6667" filterUnits="userSpaceOnUse" color-interpolation-filters="sRGB">
<feFlood flood-opacity="0" result="BackgroundImageFix"/>
<feColorMatrix in="SourceAlpha" type="matrix" values="0 0 0 0 0 0 0 0 0 0 0 0 0 0 0 0 0 0 127 0" result="hardAlpha"/>
<feOffset dy="1"/>
<feGaussianBlur stdDeviation="1"/>
<feComposite in2="hardAlpha" operator="out"/>
<feColorMatrix type="matrix" values="0 0 0 0 0 0 0 0 0 0 0 0 0 0 0 0 0 0 0.3 0"/>
<feBlend mode="normal" in2="BackgroundImageFix" result="effect1_dropShadow_30_5523"/>
<feColorMatrix in="SourceAlpha" type="matrix" values="0 0 0 0 0 0 0 0 0 0 0 0 0 0 0 0 0 0 127 0" result="hardAlpha"/>
<feOffset dy="1"/>
<feGaussianBlur stdDeviation="0.5"/>
<feComposite in2="hardAlpha" operator="out"/>
<feColorMatrix type="matrix" values="0 0 0 0 0 0 0 0 0 0 0 0 0 0 0 0 0 0 0.15 0"/>
<feBlend mode="normal" in2="effect1_dropShadow_30_5523" result="effect2_dropShadow_30_5523"/>
<feBlend mode="normal" in="SourceGraphic" in2="effect2_dropShadow_30_5523" result="shape"/>
</filter>
<filter id="filter1_d_30_5523" x="0.66626" y="45.3333" width="58.0339" height="19.6674" filterUnits="userSpaceOnUse" color-interpolation-filters="sRGB">
<feFlood flood-opacity="0" result="BackgroundImageFix"/>
<feColorMatrix in="SourceAlpha" type="matrix" values="0 0 0 0 0 0 0 0 0 0 0 0 0 0 0 0 0 0 127 0" result="hardAlpha"/>
<feOffset dy="1"/>
<feGaussianBlur stdDeviation="2"/>
<feComposite in2="hardAlpha" operator="out"/>
<feColorMatrix type="matrix" values="0 0 0 0 0 0 0 0 0 0 0 0 0 0 0 0 0 0 0.25 0"/>
<feBlend mode="normal" in2="BackgroundImageFix" result="effect1_dropShadow_30_5523"/>
<feBlend mode="normal" in="SourceGraphic" in2="effect1_dropShadow_30_5523" result="shape"/>
</filter>
</defs>
</svg>
