<svg width="65" height="66" viewBox="0 0 65 66" fill="none" xmlns="http://www.w3.org/2000/svg">
<g filter="url(#filter0_dd_30_5537)">
<path d="M49.6667 7.66667C48.2917 7.66667 46.9667 7.875 45.7183 8.26167C44.24 4.03667 40.23 1 35.5 1C30.4267 1 26.18 4.49333 25.0017 9.20167C23.745 8.25167 22.1983 7.66667 20.5 7.66667C16.3583 7.66667 13 11.025 13 15.1667C13 16.1733 13.205 17.13 13.565 18.0067C12.85 17.8083 12.1117 17.6667 11.3333 17.6667C6.73 17.6667 3 21.3967 3 26C3 30.6033 6.73 34.3333 11.3333 34.3333H49.6667C57.03 34.3333 63 28.365 63 21C63 13.6367 57.03 7.66667 49.6667 7.66667Z" fill="#E1E8ED"/>
</g>
<g filter="url(#filter1_d_30_5537)">
<path d="M22.9983 42.6017L22.81 36.9L18.0267 39.7467C16.9633 40.3217 16.2567 41.4534 16.3 42.745C16.3617 44.5834 17.91 46.0384 19.76 46C21.6083 45.9617 23.06 44.4384 22.9983 42.6017ZM19.7 55.035L19.5117 49.3334L14.7283 52.18C13.665 52.755 12.9583 53.8867 13.0017 55.1784C13.0633 57.0167 14.6117 58.4717 16.4617 58.4334C18.3117 58.395 19.7617 56.8717 19.7 55.035ZM11.3667 47.6017L11.1783 41.9L6.395 44.7467C5.33166 45.3217 4.625 46.4534 4.66833 47.745C4.73 49.5817 6.27833 51.0367 8.12833 51C9.97833 50.9617 11.4283 49.4384 11.3667 47.6017ZM41.3667 42.6017L41.1783 36.9L36.3967 39.7467C35.3317 40.3217 34.6267 41.4534 34.67 42.745C34.7317 44.5834 36.28 46.0384 38.13 46C39.9783 45.9617 41.4283 44.4384 41.3667 42.6017ZM31.3317 49.2684L31.1433 43.5667L26.3617 46.4134C25.2967 46.9884 24.5917 48.12 24.635 49.4117C24.6967 51.25 26.245 52.705 28.095 52.6667C29.9433 52.6284 31.3933 51.105 31.3317 49.2684ZM39.7 56.7017L39.51 51L34.7283 53.8467C33.6633 54.4217 32.9583 55.5534 33.0017 56.845C33.0633 58.6834 34.6117 60.1384 36.4617 60.1C38.3117 60.0617 39.7617 58.5384 39.7 56.7017ZM51.3317 47.6017L51.1433 41.9L46.3617 44.7467C45.2967 45.3217 44.5917 46.4534 44.635 47.745C44.6967 49.5834 46.245 51.0384 48.095 51C49.9433 50.9617 51.3933 49.4384 51.3317 47.6017Z" fill="#5DADEC"/>
</g>
<defs>
<filter id="filter0_dd_30_5537" x="1" y="0" width="64" height="37.3333" filterUnits="userSpaceOnUse" color-interpolation-filters="sRGB">
<feFlood flood-opacity="0" result="BackgroundImageFix"/>
<feColorMatrix in="SourceAlpha" type="matrix" values="0 0 0 0 0 0 0 0 0 0 0 0 0 0 0 0 0 0 127 0" result="hardAlpha"/>
<feOffset dy="1"/>
<feGaussianBlur stdDeviation="1"/>
<feComposite in2="hardAlpha" operator="out"/>
<feColorMatrix type="matrix" values="0 0 0 0 0 0 0 0 0 0 0 0 0 0 0 0 0 0 0.3 0"/>
<feBlend mode="normal" in2="BackgroundImageFix" result="effect1_dropShadow_30_5537"/>
<feColorMatrix in="SourceAlpha" type="matrix" values="0 0 0 0 0 0 0 0 0 0 0 0 0 0 0 0 0 0 127 0" result="hardAlpha"/>
<feOffset dy="1"/>
<feGaussianBlur stdDeviation="0.5"/>
<feComposite in2="hardAlpha" operator="out"/>
<feColorMatrix type="matrix" values="0 0 0 0 0 0 0 0 0 0 0 0 0 0 0 0 0 0 0.15 0"/>
<feBlend mode="normal" in2="effect1_dropShadow_30_5537" result="effect2_dropShadow_30_5537"/>
<feBlend mode="normal" in="SourceGraphic" in2="effect2_dropShadow_30_5537" result="shape"/>
</filter>
<filter id="filter1_d_30_5537" x="0.666443" y="33.9" width="54.6671" height="31.2007" filterUnits="userSpaceOnUse" color-interpolation-filters="sRGB">
<feFlood flood-opacity="0" result="BackgroundImageFix"/>
<feColorMatrix in="SourceAlpha" type="matrix" values="0 0 0 0 0 0 0 0 0 0 0 0 0 0 0 0 0 0 127 0" result="hardAlpha"/>
<feOffset dy="1"/>
<feGaussianBlur stdDeviation="2"/>
<feComposite in2="hardAlpha" operator="out"/>
<feColorMatrix type="matrix" values="0 0 0 0 0 0 0 0 0 0 0 0 0 0 0 0 0 0 0.25 0"/>
<feBlend mode="normal" in2="BackgroundImageFix" result="effect1_dropShadow_30_5537"/>
<feBlend mode="normal" in="SourceGraphic" in2="effect1_dropShadow_30_5537" result="shape"/>
</filter>
</defs>
</svg>
