<svg width="64" height="60" viewBox="0 0 64 60" fill="none" xmlns="http://www.w3.org/2000/svg">
<g filter="url(#filter0_dd_46_4736)">
<path d="M26.9091 19.6561C26.3134 19.6561 25.7385 19.7464 25.1964 19.9096C25.2004 19.8244 25.2091 19.7423 25.2091 19.6561C25.2091 16.8401 22.9246 14.5557 20.1087 14.5557C17.7549 14.5557 15.779 16.1521 15.1909 18.3193C14.6079 18.0872 13.9734 17.9561 13.3078 17.9561C10.4909 17.9561 8.2074 20.2396 8.2074 23.0565C8.2074 25.872 10.4909 28.1569 13.3078 28.1569C15.6617 28.1569 17.6376 26.5605 18.2256 24.3928C18.8086 24.6249 19.4431 24.7565 20.1087 24.7565C20.4275 24.7565 20.7376 24.7233 21.04 24.6683C20.9911 24.9743 20.9584 25.2864 20.9584 25.6067C20.9584 28.8924 23.6234 31.5574 26.9091 31.5574C30.1948 31.5574 32.8597 28.8924 32.8597 25.6067C32.8597 22.3205 30.1948 19.6561 26.9091 19.6561Z" fill="#E1E8ED"/>
</g>
<g filter="url(#filter1_dd_46_4736)">
<path d="M36.621 34.453C36.099 34.453 35.6045 34.5518 35.1254 34.6912C35.3666 34.0768 35.504 33.4064 35.504 32.7017C35.504 29.8002 33.2538 27.4478 30.4784 27.4478C29.3406 27.4478 28.304 27.8576 27.4617 28.5231C26.6737 25.2244 23.8265 22.7775 20.4272 22.7775C17.2577 22.7775 14.5693 24.905 13.5803 27.8647C12.7447 27.5936 11.8555 27.4478 10.9342 27.4478C6.00037 27.4478 2 31.6299 2 36.7878C2 41.9471 6.00037 46.1278 10.9342 46.1278H36.621C39.7054 46.1278 42.2048 43.5149 42.2048 40.2904C42.2048 37.0659 39.7054 34.453 36.621 34.453Z" fill="white"/>
</g>
<g filter="url(#filter2_dd_46_4736)">
<path d="M46.4758 19.9676C45.662 19.9676 44.8767 20.091 44.1361 20.3139C44.1416 20.1976 44.1535 20.0854 44.1535 19.9676C44.1535 16.1208 41.0327 13 37.1859 13C33.9703 13 31.2711 15.1809 30.4677 18.1414C29.6713 17.8244 28.8045 17.6453 27.8952 17.6453C24.047 17.6453 20.9276 20.7647 20.9276 24.6129C20.9276 28.4591 24.047 31.5806 27.8952 31.5806C31.1108 31.5806 33.8101 29.3997 34.6134 26.4385C35.4098 26.7555 36.2766 26.9353 37.1859 26.9353C37.6213 26.9353 38.045 26.89 38.4582 26.8147C38.3913 27.2328 38.3467 27.6592 38.3467 28.0968C38.3467 32.5853 41.9873 36.2259 46.4758 36.2259C50.9643 36.2259 54.6049 32.5853 54.6049 28.0968C54.6049 23.6075 50.9643 19.9676 46.4758 19.9676Z" fill="#CCD6DD"/>
</g>
<g filter="url(#filter3_dd_46_4736)">
<path d="M54.9107 27.2991C54.3149 27.2991 53.7401 27.3894 53.1979 27.5526C53.202 27.4674 53.2107 27.3853 53.2107 27.2991C53.2107 24.4832 50.9262 22.1987 48.1103 22.1987C45.7564 22.1987 43.7805 23.7951 43.1925 25.9623C42.6095 25.7302 41.975 25.5991 41.3094 25.5991C38.4924 25.5991 36.209 27.8826 36.209 30.6995C36.209 33.515 38.4924 35.8 41.3094 35.8C43.6632 35.8 45.6391 34.2035 46.2272 32.0359C46.8102 32.2679 47.4447 32.3995 48.1103 32.3995C48.4291 32.3995 48.7392 32.3664 49.0416 32.3113C48.9927 32.6173 48.96 32.9294 48.96 33.2497C48.96 36.5354 51.625 39.2004 54.9107 39.2004C58.1964 39.2004 60.8613 36.5354 60.8613 33.2497C60.8613 29.9636 58.1964 27.2991 54.9107 27.2991Z" fill="white"/>
</g>
<g filter="url(#filter4_dd_46_4736)">
<path d="M56.1938 36.3612C55.6511 36.3612 55.1369 36.4594 54.6387 36.5981C54.8895 35.987 55.0323 35.3202 55.0323 34.6192C55.0323 31.7333 52.6926 29.3935 49.8066 29.3935C48.6235 29.3935 47.5456 29.8011 46.6698 30.4631C45.8504 27.182 42.8899 24.7482 39.3552 24.7482C36.0595 24.7482 33.2641 26.8643 32.2357 29.8081C31.3668 29.5385 30.4422 29.3935 29.4841 29.3935C24.3539 29.3935 20.1942 33.5532 20.1942 38.6835C20.1942 43.8151 24.3539 47.9734 29.4841 47.9734H56.1938C59.401 47.9734 62 45.3745 62 42.1673C62 38.9601 59.401 36.3612 56.1938 36.3612Z" fill="#E1E8ED"/>
</g>
<defs>
<filter id="filter0_dd_46_4736" x="6.2074" y="13.5557" width="28.6523" height="21.0017" filterUnits="userSpaceOnUse" color-interpolation-filters="sRGB">
<feFlood flood-opacity="0" result="BackgroundImageFix"/>
<feColorMatrix in="SourceAlpha" type="matrix" values="0 0 0 0 0 0 0 0 0 0 0 0 0 0 0 0 0 0 127 0" result="hardAlpha"/>
<feOffset dy="1"/>
<feGaussianBlur stdDeviation="1"/>
<feComposite in2="hardAlpha" operator="out"/>
<feColorMatrix type="matrix" values="0 0 0 0 0 0 0 0 0 0 0 0 0 0 0 0 0 0 0.3 0"/>
<feBlend mode="normal" in2="BackgroundImageFix" result="effect1_dropShadow_46_4736"/>
<feColorMatrix in="SourceAlpha" type="matrix" values="0 0 0 0 0 0 0 0 0 0 0 0 0 0 0 0 0 0 127 0" result="hardAlpha"/>
<feOffset dy="1"/>
<feGaussianBlur stdDeviation="0.5"/>
<feComposite in2="hardAlpha" operator="out"/>
<feColorMatrix type="matrix" values="0 0 0 0 0 0 0 0 0 0 0 0 0 0 0 0 0 0 0.15 0"/>
<feBlend mode="normal" in2="effect1_dropShadow_46_4736" result="effect2_dropShadow_46_4736"/>
<feBlend mode="normal" in="SourceGraphic" in2="effect2_dropShadow_46_4736" result="shape"/>
</filter>
<filter id="filter1_dd_46_4736" x="0" y="21.7775" width="44.2048" height="27.3503" filterUnits="userSpaceOnUse" color-interpolation-filters="sRGB">
<feFlood flood-opacity="0" result="BackgroundImageFix"/>
<feColorMatrix in="SourceAlpha" type="matrix" values="0 0 0 0 0 0 0 0 0 0 0 0 0 0 0 0 0 0 127 0" result="hardAlpha"/>
<feOffset dy="1"/>
<feGaussianBlur stdDeviation="1"/>
<feComposite in2="hardAlpha" operator="out"/>
<feColorMatrix type="matrix" values="0 0 0 0 0 0 0 0 0 0 0 0 0 0 0 0 0 0 0.3 0"/>
<feBlend mode="normal" in2="BackgroundImageFix" result="effect1_dropShadow_46_4736"/>
<feColorMatrix in="SourceAlpha" type="matrix" values="0 0 0 0 0 0 0 0 0 0 0 0 0 0 0 0 0 0 127 0" result="hardAlpha"/>
<feOffset dy="1"/>
<feGaussianBlur stdDeviation="0.5"/>
<feComposite in2="hardAlpha" operator="out"/>
<feColorMatrix type="matrix" values="0 0 0 0 0 0 0 0 0 0 0 0 0 0 0 0 0 0 0.15 0"/>
<feBlend mode="normal" in2="effect1_dropShadow_46_4736" result="effect2_dropShadow_46_4736"/>
<feBlend mode="normal" in="SourceGraphic" in2="effect2_dropShadow_46_4736" result="shape"/>
</filter>
<filter id="filter2_dd_46_4736" x="18.9276" y="12" width="37.6773" height="27.2259" filterUnits="userSpaceOnUse" color-interpolation-filters="sRGB">
<feFlood flood-opacity="0" result="BackgroundImageFix"/>
<feColorMatrix in="SourceAlpha" type="matrix" values="0 0 0 0 0 0 0 0 0 0 0 0 0 0 0 0 0 0 127 0" result="hardAlpha"/>
<feOffset dy="1"/>
<feGaussianBlur stdDeviation="1"/>
<feComposite in2="hardAlpha" operator="out"/>
<feColorMatrix type="matrix" values="0 0 0 0 0 0 0 0 0 0 0 0 0 0 0 0 0 0 0.3 0"/>
<feBlend mode="normal" in2="BackgroundImageFix" result="effect1_dropShadow_46_4736"/>
<feColorMatrix in="SourceAlpha" type="matrix" values="0 0 0 0 0 0 0 0 0 0 0 0 0 0 0 0 0 0 127 0" result="hardAlpha"/>
<feOffset dy="1"/>
<feGaussianBlur stdDeviation="0.5"/>
<feComposite in2="hardAlpha" operator="out"/>
<feColorMatrix type="matrix" values="0 0 0 0 0 0 0 0 0 0 0 0 0 0 0 0 0 0 0.15 0"/>
<feBlend mode="normal" in2="effect1_dropShadow_46_4736" result="effect2_dropShadow_46_4736"/>
<feBlend mode="normal" in="SourceGraphic" in2="effect2_dropShadow_46_4736" result="shape"/>
</filter>
<filter id="filter3_dd_46_4736" x="34.209" y="21.1987" width="28.6523" height="21.0017" filterUnits="userSpaceOnUse" color-interpolation-filters="sRGB">
<feFlood flood-opacity="0" result="BackgroundImageFix"/>
<feColorMatrix in="SourceAlpha" type="matrix" values="0 0 0 0 0 0 0 0 0 0 0 0 0 0 0 0 0 0 127 0" result="hardAlpha"/>
<feOffset dy="1"/>
<feGaussianBlur stdDeviation="1"/>
<feComposite in2="hardAlpha" operator="out"/>
<feColorMatrix type="matrix" values="0 0 0 0 0 0 0 0 0 0 0 0 0 0 0 0 0 0 0.3 0"/>
<feBlend mode="normal" in2="BackgroundImageFix" result="effect1_dropShadow_46_4736"/>
<feColorMatrix in="SourceAlpha" type="matrix" values="0 0 0 0 0 0 0 0 0 0 0 0 0 0 0 0 0 0 127 0" result="hardAlpha"/>
<feOffset dy="1"/>
<feGaussianBlur stdDeviation="0.5"/>
<feComposite in2="hardAlpha" operator="out"/>
<feColorMatrix type="matrix" values="0 0 0 0 0 0 0 0 0 0 0 0 0 0 0 0 0 0 0.15 0"/>
<feBlend mode="normal" in2="effect1_dropShadow_46_4736" result="effect2_dropShadow_46_4736"/>
<feBlend mode="normal" in="SourceGraphic" in2="effect2_dropShadow_46_4736" result="shape"/>
</filter>
<filter id="filter4_dd_46_4736" x="18.1942" y="23.7482" width="45.8058" height="27.2252" filterUnits="userSpaceOnUse" color-interpolation-filters="sRGB">
<feFlood flood-opacity="0" result="BackgroundImageFix"/>
<feColorMatrix in="SourceAlpha" type="matrix" values="0 0 0 0 0 0 0 0 0 0 0 0 0 0 0 0 0 0 127 0" result="hardAlpha"/>
<feOffset dy="1"/>
<feGaussianBlur stdDeviation="1"/>
<feComposite in2="hardAlpha" operator="out"/>
<feColorMatrix type="matrix" values="0 0 0 0 0 0 0 0 0 0 0 0 0 0 0 0 0 0 0.3 0"/>
<feBlend mode="normal" in2="BackgroundImageFix" result="effect1_dropShadow_46_4736"/>
<feColorMatrix in="SourceAlpha" type="matrix" values="0 0 0 0 0 0 0 0 0 0 0 0 0 0 0 0 0 0 127 0" result="hardAlpha"/>
<feOffset dy="1"/>
<feGaussianBlur stdDeviation="0.5"/>
<feComposite in2="hardAlpha" operator="out"/>
<feColorMatrix type="matrix" values="0 0 0 0 0 0 0 0 0 0 0 0 0 0 0 0 0 0 0.15 0"/>
<feBlend mode="normal" in2="effect1_dropShadow_46_4736" result="effect2_dropShadow_46_4736"/>
<feBlend mode="normal" in="SourceGraphic" in2="effect2_dropShadow_46_4736" result="shape"/>
</filter>
</defs>
</svg>
