<svg width="30" height="30" viewBox="0 0 30 30" fill="none" xmlns="http://www.w3.org/2000/svg">
    <g clip-path="url(#clip0_982_11352)">
        <path d="M21.0937 21.0938L8.90625 8.90625M21.0938 8.90625L8.90625 21.0938" stroke="#002A42" stroke-width="3"
            stroke-linecap="round" stroke-linejoin="round" />
    </g>
    <defs>
        <clipPath id="clip0_982_11352">
            <rect width="30" height="30" fill="white" />
        </clipPath>
    </defs>
</svg>