<svg width="78" height="78" viewBox="0 0 78 78" fill="none" xmlns="http://www.w3.org/2000/svg">
    <path
        d="M39.0194 46.8878C38.41 46.8878 37.9225 46.4003 37.9225 45.7909V41.4156C37.9226 41.3368 37.8973 41.26 37.8503 41.1968C37.8033 41.1335 37.7372 41.0872 37.6617 41.0646L27.5461 38.0348C27.4533 38.0066 27.3755 37.9428 27.3298 37.8573C27.2841 37.7718 27.2742 37.6717 27.3023 37.5789L27.7264 36.1603C27.7546 36.0681 27.8181 35.9908 27.903 35.9451C27.9879 35.8995 28.0874 35.8892 28.1798 35.9166L37.4496 38.6929C37.5043 38.7092 37.562 38.7126 37.6181 38.7026C37.6743 38.6927 37.7274 38.6698 37.7731 38.6357C37.8188 38.6015 37.8559 38.5572 37.8814 38.5062C37.9069 38.4552 37.9202 38.3989 37.9201 38.3419V38.1615C37.9201 35.724 38.6026 33.3109 39.9676 31.2634C40.3039 30.7588 40.5916 30.2299 40.8304 29.6814C40.85 29.6351 40.8595 29.5852 40.8583 29.535C40.8572 29.4847 40.8454 29.4353 40.8237 29.3899C40.8021 29.3445 40.7711 29.3043 40.7327 29.2717C40.6944 29.2392 40.6496 29.2152 40.6013 29.2013L29.0061 25.7254C28.9134 25.6972 28.8356 25.6334 28.7899 25.5479C28.7442 25.4625 28.7343 25.3623 28.7624 25.2696L29.1865 23.8509C29.2146 23.7582 29.2785 23.6804 29.3639 23.6347C29.4494 23.589 29.5495 23.5791 29.6423 23.6072L41.1595 27.0611C41.2089 27.0765 41.2611 27.0809 41.3124 27.074C41.3637 27.0671 41.4129 27.0491 41.4565 27.0212C41.5001 26.9934 41.5372 26.9564 41.565 26.9127C41.5929 26.8691 41.6109 26.8199 41.6177 26.7686C41.6714 26.3372 41.6982 25.9009 41.6982 25.4621V20.709C41.6982 20.612 41.7367 20.519 41.8053 20.4505C41.8738 20.3819 41.9668 20.3434 42.0638 20.3434H43.5263C43.6233 20.3434 43.7163 20.3819 43.7848 20.4505C43.8534 20.519 43.8919 20.612 43.8919 20.709V25.4621L43.8871 25.779C43.8852 25.8383 43.8974 25.8973 43.9226 25.951C43.9477 26.0048 43.9852 26.0519 44.032 26.0884C44.0788 26.125 44.1335 26.15 44.1917 26.1615C44.25 26.1729 44.3101 26.1705 44.3672 26.1544L52.9716 23.5804C53.0177 23.5665 53.0661 23.5619 53.114 23.5668C53.1619 23.5717 53.2083 23.586 53.2507 23.6088C53.293 23.6317 53.3304 23.6627 53.3608 23.7001C53.3911 23.7374 53.4138 23.7804 53.4274 23.8266L53.8516 25.2476C53.8789 25.3401 53.8686 25.4396 53.823 25.5245C53.7773 25.6094 53.7 25.6728 53.6078 25.701L43.6628 28.6748C43.6032 28.693 43.5491 28.7261 43.5057 28.7708C43.4622 28.8156 43.4307 28.8706 43.4142 28.9307C43.0637 30.1652 42.5252 31.3384 41.8176 32.409C40.6964 34.1153 40.1114 36.114 40.1114 38.1615V40.0896C40.1114 40.3333 40.3478 40.5113 40.5842 40.4406L49.8297 37.6691C49.9225 37.6419 50.0222 37.6525 50.1072 37.6986C50.1922 37.7448 50.2554 37.8227 50.2831 37.9153L50.7096 39.3339C50.7235 39.38 50.7281 39.4284 50.7232 39.4763C50.7183 39.5242 50.7041 39.5706 50.6812 39.613C50.6583 39.6553 50.6273 39.6927 50.5899 39.7231C50.5526 39.7534 50.5096 39.7761 50.4634 39.7898L40.3722 42.8123C40.2967 42.8348 40.2305 42.8812 40.1835 42.9445C40.1365 43.0077 40.1112 43.0845 40.1114 43.1633V45.7909C40.1114 46.4003 39.6239 46.8878 39.0145 46.8878H39.0194Z"
        fill="#497426" />
    <path
        d="M39.0197 46.8878C38.4104 46.8878 37.9229 46.4003 37.9229 45.7909V38.1615C37.9229 35.724 38.6054 33.3109 39.9704 31.2634C41.116 29.5328 41.701 27.534 41.701 25.4621V20.3434H43.8947V25.4621C43.8947 27.9484 43.1879 30.3371 41.8229 32.409C40.7016 34.1153 40.1166 36.114 40.1166 38.1615V45.7909C40.1166 46.4003 39.6291 46.8878 39.0197 46.8878Z"
        fill="#497426" />
    <path
        d="M39.0197 46.8878C38.4104 46.8878 37.9229 46.4003 37.9229 45.7909V38.1615C37.9229 35.724 38.6054 33.3109 39.9704 31.2634C41.116 29.5328 41.701 27.534 41.701 25.4621V20.3434H43.8947V25.4621C43.8947 27.9484 43.1879 30.3371 41.8229 32.409C40.7016 34.1153 40.1166 36.114 40.1166 38.1615V45.7909C40.1166 46.4003 39.6291 46.8878 39.0197 46.8878Z"
        fill="url(#paint0_linear_663_803)" />
    <path d="M27.5122 36.8696L39.3097 40.404" stroke="#497426" stroke-width="0.908" stroke-miterlimit="10" />
    <path d="M27.5122 36.8696L39.3097 40.404" stroke="url(#paint1_linear_663_803)" stroke-width="0.908"
        stroke-miterlimit="10" />
    <path d="M28.9746 24.5602L41.8202 28.4115" stroke="#497426" stroke-width="0.908" stroke-miterlimit="10" />
    <path d="M28.9746 24.5602L41.8202 28.4115" stroke="url(#paint2_linear_663_803)" stroke-width="0.908"
        stroke-miterlimit="10" />
    <path d="M50.4977 38.6246L38.7002 42.159" stroke="#497426" stroke-width="0.908" stroke-miterlimit="10" />
    <path d="M50.4977 38.6246L38.7002 42.159" stroke="url(#paint3_radial_663_803)" stroke-width="0.908"
        stroke-miterlimit="10" />
    <path d="M50.4977 38.6246L38.7002 42.159" stroke="url(#paint4_linear_663_803)" stroke-width="0.908"
        stroke-miterlimit="10" />
    <path d="M53.6421 24.5359L42.064 27.9971" stroke="#497426" stroke-width="0.908" stroke-miterlimit="10" />
    <path d="M53.6421 24.5359L42.064 27.9971" stroke="url(#paint5_linear_663_803)" stroke-width="0.908"
        stroke-miterlimit="10" />
    <path d="M53.6421 24.5359L42.064 27.9971" stroke="url(#paint6_linear_663_803)" stroke-width="0.908"
        stroke-miterlimit="10" />
    <g filter="url(#filter0_f_663_803)">
        <path d="M35.5923 26.2421L42.1979 28.2214" stroke="url(#paint7_linear_663_803)" stroke-width="0.25"
            stroke-linecap="round" />
    </g>
    <g filter="url(#filter1_f_663_803)">
        <path d="M32.1362 38.0104L38.7443 39.9896" stroke="url(#paint8_linear_663_803)" stroke-width="0.25"
            stroke-linecap="round" />
    </g>
    <g filter="url(#filter2_f_663_803)">
        <path d="M45.1256 40.1797L38.5176 42.159" stroke="url(#paint9_linear_663_803)" stroke-width="0.25"
            stroke-linecap="round" />
    </g>
    <g filter="url(#filter3_f_663_803)">
        <path d="M48.4284 25.896L41.8228 27.8752" stroke="url(#paint10_linear_663_803)" stroke-width="0.25"
            stroke-linecap="round" />
    </g>
    <g filter="url(#filter4_f_663_803)">
        <path
            d="M42.7977 21.9034V25.9545C42.7969 27.4805 42.4379 28.985 41.7496 30.3469L40.3553 33.111C39.4964 34.8134 39.0489 36.6935 39.0488 38.6003V44.8305"
            stroke="url(#paint11_linear_663_803)" stroke-width="0.25" stroke-linecap="round" />
    </g>
    <path
        d="M52.9865 48.7402C49.0116 45.5907 44.091 43.8732 39.0196 43.8652C33.779 43.8652 28.9284 45.6934 25.0527 48.7402H52.9865Z"
        fill="url(#paint12_radial_663_803)" />
    <path
        d="M42.5516 5.03587C41.3746 6.17026 40.4327 7.52547 39.7798 9.02405C39.1268 10.5226 38.7756 12.1352 38.7462 13.7696C38.7167 15.404 39.0097 17.0281 39.6083 18.5492C40.2068 20.0704 41.0993 21.4586 42.2347 22.6346C42.4541 22.854 42.8197 22.8784 43.0391 22.659C44.216 21.5246 45.1579 20.1694 45.8109 18.6708C46.4638 17.1722 46.8151 15.5597 46.8445 13.9253C46.8739 12.2909 46.581 10.6667 45.9824 9.14562C45.3838 7.62451 44.4913 6.23627 43.356 5.06025C43.1366 4.8165 42.771 4.8165 42.5516 5.03587Z"
        fill="url(#paint13_radial_663_803)" />
    <g filter="url(#filter5_f_663_803)">
        <path
            d="M42.6269 6.63242C39.2095 10.5446 39.1096 16.9918 42.4075 21.0405C42.5611 21.2209 42.8122 21.2404 42.9657 21.0624C46.3831 17.1502 46.483 10.703 43.1851 6.65192C43.0315 6.45449 42.7805 6.45449 42.6269 6.63242Z"
            fill="url(#paint14_linear_663_803)" />
    </g>
    <g filter="url(#filter6_d_663_803)">
        <path
            d="M25.9789 28.0946L18.0302 25.7108C17.9545 25.6868 17.8748 25.6786 17.7958 25.6867C17.7168 25.6948 17.6403 25.719 17.5711 25.7578C17.5019 25.7967 17.4414 25.8493 17.3933 25.9125C17.3452 25.9757 17.3106 26.0481 17.2917 26.1251C16.7847 28.3675 17.1443 30.7187 18.2985 32.7069C19.4527 34.6952 21.316 36.1735 23.5146 36.8453L31.4657 39.2316C31.5414 39.2556 31.6212 39.2637 31.7002 39.2556C31.7791 39.2475 31.8556 39.2233 31.9248 39.1845C31.9941 39.1456 32.0546 39.093 32.1027 39.0298C32.1507 38.9666 32.1853 38.8943 32.2043 38.8172C32.7244 36.5734 32.3702 34.2157 31.2138 32.2238C30.0573 30.2319 28.1854 28.7554 25.9789 28.0946Z"
            fill="#7AAD33" />
        <path
            d="M25.9789 28.0946L18.0302 25.7108C17.9545 25.6868 17.8748 25.6786 17.7958 25.6867C17.7168 25.6948 17.6403 25.719 17.5711 25.7578C17.5019 25.7967 17.4414 25.8493 17.3933 25.9125C17.3452 25.9757 17.3106 26.0481 17.2917 26.1251C16.7847 28.3675 17.1443 30.7187 18.2985 32.7069C19.4527 34.6952 21.316 36.1735 23.5146 36.8453L31.4657 39.2316C31.5414 39.2556 31.6212 39.2637 31.7002 39.2556C31.7791 39.2475 31.8556 39.2233 31.9248 39.1845C31.9941 39.1456 32.0546 39.093 32.1027 39.0298C32.1507 38.9666 32.1853 38.8943 32.2043 38.8172C32.7244 36.5734 32.3702 34.2157 31.2138 32.2238C30.0573 30.2319 28.1854 28.7554 25.9789 28.0946Z"
            fill="url(#paint15_radial_663_803)" />
    </g>
    <g filter="url(#filter7_d_663_803)">
        <path
            d="M29.5595 16.419L21.6157 14.0351C21.5396 14.0108 21.4592 14.0025 21.3797 14.0107C21.3002 14.0189 21.2232 14.0435 21.1536 14.0829C21.0841 14.1222 21.0234 14.1756 20.9754 14.2395C20.9274 14.3034 20.8931 14.3766 20.8747 14.4544C20.3726 16.6991 20.7374 19.0507 21.8959 21.0378C23.0545 23.0249 24.9212 24.5008 27.122 25.1696L35.0683 27.5535C35.1441 27.5779 35.2241 27.5864 35.3034 27.5785C35.3827 27.5706 35.4594 27.5464 35.5289 27.5075C35.5985 27.4687 35.6592 27.4159 35.7075 27.3525C35.7557 27.2891 35.7903 27.2165 35.8093 27.1391C36.3192 24.893 35.9576 22.537 34.7976 20.5471C33.6375 18.5573 31.7654 17.0819 29.5595 16.419Z"
            fill="#7AAD33" />
        <path
            d="M29.5595 16.419L21.6157 14.0351C21.5396 14.0108 21.4592 14.0025 21.3797 14.0107C21.3002 14.0189 21.2232 14.0435 21.1536 14.0829C21.0841 14.1222 21.0234 14.1756 20.9754 14.2395C20.9274 14.3034 20.8931 14.3766 20.8747 14.4544C20.3726 16.6991 20.7374 19.0507 21.8959 21.0378C23.0545 23.0249 24.9212 24.5008 27.122 25.1696L35.0683 27.5535C35.1441 27.5779 35.2241 27.5864 35.3034 27.5785C35.3827 27.5706 35.4594 27.5464 35.5289 27.5075C35.5985 27.4687 35.6592 27.4159 35.7075 27.3525C35.7557 27.2891 35.7903 27.2165 35.8093 27.1391C36.3192 24.893 35.9576 22.537 34.7976 20.5471C33.6375 18.5573 31.7654 17.0819 29.5595 16.419Z"
            fill="url(#paint16_radial_663_803)" />
    </g>
    <g filter="url(#filter8_d_663_803)">
        <path
            d="M50.0615 30.4346L58.0077 28.0508C58.0834 28.0268 58.1632 28.0186 58.2421 28.0267C58.3211 28.0348 58.3976 28.059 58.4668 28.0978C58.536 28.1367 58.5966 28.1893 58.6446 28.2525C58.6927 28.3157 58.7273 28.388 58.7463 28.4651C59.2533 30.7075 58.8936 33.0586 57.7394 35.0469C56.5853 37.0352 54.722 38.5135 52.5233 39.1853L44.5722 41.5716C44.4965 41.5955 44.4167 41.6037 44.3378 41.5956C44.2588 41.5875 44.1823 41.5633 44.1131 41.5245C44.0439 41.4856 43.9833 41.433 43.9353 41.3698C43.8872 41.3066 43.8526 41.2343 43.8336 41.1572C43.3166 38.9133 43.6725 36.5567 44.829 34.5654C45.9855 32.5742 47.8562 31.0974 50.0615 30.4346Z"
            fill="#7AAD33" />
        <path
            d="M50.0615 30.4346L58.0077 28.0508C58.0834 28.0268 58.1632 28.0186 58.2421 28.0267C58.3211 28.0348 58.3976 28.059 58.4668 28.0978C58.536 28.1367 58.5966 28.1893 58.6446 28.2525C58.6927 28.3157 58.7273 28.388 58.7463 28.4651C59.2533 30.7075 58.8936 33.0586 57.7394 35.0469C56.5853 37.0352 54.722 38.5135 52.5233 39.1853L44.5722 41.5716C44.4965 41.5955 44.4167 41.6037 44.3378 41.5956C44.2588 41.5875 44.1823 41.5633 44.1131 41.5245C44.0439 41.4856 43.9833 41.433 43.9353 41.3698C43.8872 41.3066 43.8526 41.2343 43.8336 41.1572C43.3166 38.9133 43.6725 36.5567 44.829 34.5654C45.9855 32.5742 47.8562 31.0974 50.0615 30.4346Z"
            fill="url(#paint17_radial_663_803)" />
        <path
            d="M50.0615 30.4346L58.0077 28.0508C58.0834 28.0268 58.1632 28.0186 58.2421 28.0267C58.3211 28.0348 58.3976 28.059 58.4668 28.0978C58.536 28.1367 58.5966 28.1893 58.6446 28.2525C58.6927 28.3157 58.7273 28.388 58.7463 28.4651C59.2533 30.7075 58.8936 33.0586 57.7394 35.0469C56.5853 37.0352 54.722 38.5135 52.5233 39.1853L44.5722 41.5716C44.4965 41.5955 44.4167 41.6037 44.3378 41.5956C44.2588 41.5875 44.1823 41.5633 44.1131 41.5245C44.0439 41.4856 43.9833 41.433 43.9353 41.3698C43.8872 41.3066 43.8526 41.2343 43.8336 41.1572C43.3166 38.9133 43.6725 36.5567 44.829 34.5654C45.9855 32.5742 47.8562 31.0974 50.0615 30.4346Z"
            fill="url(#paint18_radial_663_803)" />
    </g>
    <g filter="url(#filter9_d_663_803)">
        <path
            d="M52.0601 16.6871L60.0064 14.3033C60.082 14.2793 60.1618 14.2711 60.2408 14.2792C60.3198 14.2873 60.3962 14.3115 60.4655 14.3503C60.5347 14.3892 60.5952 14.4418 60.6433 14.505C60.6914 14.5682 60.7259 14.6405 60.7449 14.7176C61.2519 16.96 60.8922 19.3111 59.7381 21.2994C58.5839 23.2877 56.7206 24.766 54.522 25.4378L46.5709 27.8241C46.4952 27.8481 46.4154 27.8562 46.3364 27.8481C46.2575 27.84 46.181 27.8158 46.1117 27.777C46.0425 27.7381 45.982 27.6855 45.9339 27.6223C45.8859 27.5591 45.8513 27.4868 45.8323 27.4097C45.3086 25.1654 45.6616 22.8058 46.819 20.8129C47.9765 18.8201 49.8512 17.3443 52.0601 16.6871Z"
            fill="#7AAD33" />
        <path
            d="M52.0601 16.6871L60.0064 14.3033C60.082 14.2793 60.1618 14.2711 60.2408 14.2792C60.3198 14.2873 60.3962 14.3115 60.4655 14.3503C60.5347 14.3892 60.5952 14.4418 60.6433 14.505C60.6914 14.5682 60.7259 14.6405 60.7449 14.7176C61.2519 16.96 60.8922 19.3111 59.7381 21.2994C58.5839 23.2877 56.7206 24.766 54.522 25.4378L46.5709 27.8241C46.4952 27.8481 46.4154 27.8562 46.3364 27.8481C46.2575 27.84 46.181 27.8158 46.1117 27.777C46.0425 27.7381 45.982 27.6855 45.9339 27.6223C45.8859 27.5591 45.8513 27.4868 45.8323 27.4097C45.3086 25.1654 45.6616 22.8058 46.819 20.8129C47.9765 18.8201 49.8512 17.3443 52.0601 16.6871Z"
            fill="url(#paint19_radial_663_803)" />
        <path
            d="M52.0601 16.6871L60.0064 14.3033C60.082 14.2793 60.1618 14.2711 60.2408 14.2792C60.3198 14.2873 60.3962 14.3115 60.4655 14.3503C60.5347 14.3892 60.5952 14.4418 60.6433 14.505C60.6914 14.5682 60.7259 14.6405 60.7449 14.7176C61.2519 16.96 60.8922 19.3111 59.7381 21.2994C58.5839 23.2877 56.7206 24.766 54.522 25.4378L46.5709 27.8241C46.4952 27.8481 46.4154 27.8562 46.3364 27.8481C46.2575 27.84 46.181 27.8158 46.1117 27.777C46.0425 27.7381 45.982 27.6855 45.9339 27.6223C45.8859 27.5591 45.8513 27.4868 45.8323 27.4097C45.3086 25.1654 45.6616 22.8058 46.819 20.8129C47.9765 18.8201 49.8512 17.3443 52.0601 16.6871Z"
            fill="url(#paint20_radial_663_803)" />
    </g>
    <path
        d="M21.9546 58.4902L23.8558 69.9221C24.1727 71.7746 25.7571 73.1152 27.6096 73.1152H50.4002C52.2527 73.1152 53.8615 71.7746 54.154 69.9221L56.0796 58.4902H21.9546Z"
        fill="url(#paint21_radial_663_803)" />
    <path
        d="M21.9546 58.4902L23.8558 69.9221C24.1727 71.7746 25.7571 73.1152 27.6096 73.1152H50.4002C52.2527 73.1152 53.8615 71.7746 54.154 69.9221L56.0796 58.4902H21.9546Z"
        fill="url(#paint22_linear_663_803)" />
    <path
        d="M21.9546 58.4902L23.8558 69.9221C24.1727 71.7746 25.7571 73.1152 27.6096 73.1152H50.4002C52.2527 73.1152 53.8615 71.7746 54.154 69.9221L56.0796 58.4902H21.9546Z"
        fill="url(#paint23_linear_663_803)" />
    <path
        d="M21.9546 58.4902L23.8558 69.9221C24.1727 71.7746 25.7571 73.1152 27.6096 73.1152H50.4002C52.2527 73.1152 53.8615 71.7746 54.154 69.9221L56.0796 58.4902H21.9546Z"
        fill="url(#paint24_linear_663_803)" />
    <path
        d="M57.2983 58.4902H20.7358C20.0533 58.4902 19.5171 57.954 19.5171 57.2715V49.959C19.5171 49.2765 20.0533 48.7402 20.7358 48.7402H57.2983C57.9808 48.7402 58.5171 49.2765 58.5171 49.959V57.2715C58.5171 57.954 57.9808 58.4902 57.2983 58.4902Z"
        fill="url(#paint25_radial_663_803)" />
    <path
        d="M57.2983 58.4902H20.7358C20.0533 58.4902 19.5171 57.954 19.5171 57.2715V49.959C19.5171 49.2765 20.0533 48.7402 20.7358 48.7402H57.2983C57.9808 48.7402 58.5171 49.2765 58.5171 49.959V57.2715C58.5171 57.954 57.9808 58.4902 57.2983 58.4902Z"
        fill="url(#paint26_linear_663_803)" />
    <path
        d="M57.2983 58.4902H20.7358C20.0533 58.4902 19.5171 57.954 19.5171 57.2715V49.959C19.5171 49.2765 20.0533 48.7402 20.7358 48.7402H57.2983C57.9808 48.7402 58.5171 49.2765 58.5171 49.959V57.2715C58.5171 57.954 57.9808 58.4902 57.2983 58.4902Z"
        fill="url(#paint27_linear_663_803)" />
    <path
        d="M57.2983 58.4902H20.7358C20.0533 58.4902 19.5171 57.954 19.5171 57.2715V49.959C19.5171 49.2765 20.0533 48.7402 20.7358 48.7402H57.2983C57.9808 48.7402 58.5171 49.2765 58.5171 49.959V57.2715C58.5171 57.954 57.9808 58.4902 57.2983 58.4902Z"
        fill="url(#paint28_linear_663_803)" />
    <g filter="url(#filter10_f_663_803)">
        <path d="M26.9395 49.9005H57.1888" stroke="url(#paint29_linear_663_803)" stroke-width="0.4"
            stroke-linecap="round" />
    </g>
    <g filter="url(#filter11_f_663_803)">
        <path d="M43.1001 6.82257C44.2579 8.79695 46.1348 13.1235 44.3286 19.1539" stroke="url(#paint30_linear_663_803)"
            stroke-width="0.5" stroke-linecap="round" />
    </g>
    <g filter="url(#filter12_f_663_803)">
        <path
            d="M27.1929 16.9479L29.8887 17.8644C30.5517 18.0911 31.2026 18.3763 31.7412 18.8248C32.9405 19.8266 34.4664 21.6426 34.6589 23.9557"
            stroke="url(#paint31_radial_663_803)" stroke-width="0.4" stroke-linecap="round" />
    </g>
    <g filter="url(#filter13_f_663_803)">
        <path
            d="M23.7803 29.1379L26.4762 30.0544C27.1392 30.2811 27.79 30.5638 28.3286 31.0123C29.5279 32.0166 31.0538 33.8325 31.2463 36.1457"
            stroke="url(#paint32_radial_663_803)" stroke-width="0.4" stroke-linecap="round" />
    </g>
    <defs>
        <filter id="filter0_f_663_803" x="35.2173" y="25.8671" width="7.35547" height="2.72931"
            filterUnits="userSpaceOnUse" color-interpolation-filters="sRGB">
            <feFlood flood-opacity="0" result="BackgroundImageFix" />
            <feBlend mode="normal" in="SourceGraphic" in2="BackgroundImageFix" result="shape" />
            <feGaussianBlur stdDeviation="0.125" result="effect1_foregroundBlur_663_803" />
        </filter>
        <filter id="filter1_f_663_803" x="31.7612" y="37.6353" width="7.35791" height="2.72931"
            filterUnits="userSpaceOnUse" color-interpolation-filters="sRGB">
            <feFlood flood-opacity="0" result="BackgroundImageFix" />
            <feBlend mode="normal" in="SourceGraphic" in2="BackgroundImageFix" result="shape" />
            <feGaussianBlur stdDeviation="0.125" result="effect1_foregroundBlur_663_803" />
        </filter>
        <filter id="filter2_f_663_803" x="38.1426" y="39.8047" width="7.35791" height="2.72931"
            filterUnits="userSpaceOnUse" color-interpolation-filters="sRGB">
            <feFlood flood-opacity="0" result="BackgroundImageFix" />
            <feBlend mode="normal" in="SourceGraphic" in2="BackgroundImageFix" result="shape" />
            <feGaussianBlur stdDeviation="0.125" result="effect1_foregroundBlur_663_803" />
        </filter>
        <filter id="filter3_f_663_803" x="41.4478" y="25.521" width="7.35547" height="2.72931"
            filterUnits="userSpaceOnUse" color-interpolation-filters="sRGB">
            <feFlood flood-opacity="0" result="BackgroundImageFix" />
            <feBlend mode="normal" in="SourceGraphic" in2="BackgroundImageFix" result="shape" />
            <feGaussianBlur stdDeviation="0.125" result="effect1_foregroundBlur_663_803" />
        </filter>
        <filter id="filter4_f_663_803" x="38.6738" y="21.5284" width="4.49902" height="23.6771"
            filterUnits="userSpaceOnUse" color-interpolation-filters="sRGB">
            <feFlood flood-opacity="0" result="BackgroundImageFix" />
            <feBlend mode="normal" in="SourceGraphic" in2="BackgroundImageFix" result="shape" />
            <feGaussianBlur stdDeviation="0.125" result="effect1_foregroundBlur_663_803" />
        </filter>
        <filter id="filter5_f_663_803" x="38.9976" y="5.50131" width="7.59766" height="16.685"
            filterUnits="userSpaceOnUse" color-interpolation-filters="sRGB">
            <feFlood flood-opacity="0" result="BackgroundImageFix" />
            <feBlend mode="normal" in="SourceGraphic" in2="BackgroundImageFix" result="shape" />
            <feGaussianBlur stdDeviation="0.5" result="effect1_foregroundBlur_663_803" />
        </filter>
        <filter id="filter6_d_663_803" x="16.8174" y="25.4337" width="15.8711" height="14.075"
            filterUnits="userSpaceOnUse" color-interpolation-filters="sRGB">
            <feFlood flood-opacity="0" result="BackgroundImageFix" />
            <feColorMatrix in="SourceAlpha" type="matrix" values="0 0 0 0 0 0 0 0 0 0 0 0 0 0 0 0 0 0 127 0"
                result="hardAlpha" />
            <feOffset />
            <feGaussianBlur stdDeviation="0.125" />
            <feComposite in2="hardAlpha" operator="out" />
            <feColorMatrix type="matrix" values="0 0 0 0 0.713726 0 0 0 0 0.784314 0 0 0 0 0.647059 0 0 0 1 0" />
            <feBlend mode="normal" in2="BackgroundImageFix" result="effect1_dropShadow_663_803" />
            <feBlend mode="normal" in="SourceGraphic" in2="effect1_dropShadow_663_803" result="shape" />
        </filter>
        <filter id="filter7_d_663_803" x="20.4048" y="13.7577" width="15.8804" height="14.0737"
            filterUnits="userSpaceOnUse" color-interpolation-filters="sRGB">
            <feFlood flood-opacity="0" result="BackgroundImageFix" />
            <feColorMatrix in="SourceAlpha" type="matrix" values="0 0 0 0 0 0 0 0 0 0 0 0 0 0 0 0 0 0 127 0"
                result="hardAlpha" />
            <feOffset />
            <feGaussianBlur stdDeviation="0.125" />
            <feComposite in2="hardAlpha" operator="out" />
            <feColorMatrix type="matrix" values="0 0 0 0 0.713726 0 0 0 0 0.784314 0 0 0 0 0.647059 0 0 0 1 0" />
            <feBlend mode="normal" in2="BackgroundImageFix" result="effect1_dropShadow_663_803" />
            <feBlend mode="normal" in="SourceGraphic" in2="effect1_dropShadow_663_803" result="shape" />
        </filter>
        <filter id="filter8_d_663_803" x="43.3521" y="27.7737" width="15.8687" height="14.075"
            filterUnits="userSpaceOnUse" color-interpolation-filters="sRGB">
            <feFlood flood-opacity="0" result="BackgroundImageFix" />
            <feColorMatrix in="SourceAlpha" type="matrix" values="0 0 0 0 0 0 0 0 0 0 0 0 0 0 0 0 0 0 127 0"
                result="hardAlpha" />
            <feOffset />
            <feGaussianBlur stdDeviation="0.125" />
            <feComposite in2="hardAlpha" operator="out" />
            <feColorMatrix type="matrix" values="0 0 0 0 0.713726 0 0 0 0 0.784314 0 0 0 0 0.647059 0 0 0 1 0" />
            <feBlend mode="normal" in2="BackgroundImageFix" result="effect1_dropShadow_663_803" />
            <feBlend mode="normal" in="SourceGraphic" in2="effect1_dropShadow_663_803" result="shape" />
        </filter>
        <filter id="filter9_d_663_803" x="45.3457" y="14.0262" width="15.8735" height="14.075"
            filterUnits="userSpaceOnUse" color-interpolation-filters="sRGB">
            <feFlood flood-opacity="0" result="BackgroundImageFix" />
            <feColorMatrix in="SourceAlpha" type="matrix" values="0 0 0 0 0 0 0 0 0 0 0 0 0 0 0 0 0 0 127 0"
                result="hardAlpha" />
            <feOffset />
            <feGaussianBlur stdDeviation="0.125" />
            <feComposite in2="hardAlpha" operator="out" />
            <feColorMatrix type="matrix" values="0 0 0 0 0.713726 0 0 0 0 0.784314 0 0 0 0 0.647059 0 0 0 1 0" />
            <feBlend mode="normal" in2="BackgroundImageFix" result="effect1_dropShadow_663_803" />
            <feBlend mode="normal" in="SourceGraphic" in2="effect1_dropShadow_663_803" result="shape" />
        </filter>
        <filter id="filter10_f_663_803" x="26.4393" y="49.4005" width="31.2494" height="1.00002"
            filterUnits="userSpaceOnUse" color-interpolation-filters="sRGB">
            <feFlood flood-opacity="0" result="BackgroundImageFix" />
            <feBlend mode="normal" in="SourceGraphic" in2="BackgroundImageFix" result="shape" />
            <feGaussianBlur stdDeviation="0.15" result="effect1_foregroundBlur_663_803" />
        </filter>
        <filter id="filter11_f_663_803" x="42.2501" y="5.97254" width="3.67852" height="14.0314"
            filterUnits="userSpaceOnUse" color-interpolation-filters="sRGB">
            <feFlood flood-opacity="0" result="BackgroundImageFix" />
            <feBlend mode="normal" in="SourceGraphic" in2="BackgroundImageFix" result="shape" />
            <feGaussianBlur stdDeviation="0.3" result="effect1_foregroundBlur_663_803" />
        </filter>
        <filter id="filter12_f_663_803" x="26.5927" y="16.3479" width="8.66621" height="8.20787"
            filterUnits="userSpaceOnUse" color-interpolation-filters="sRGB">
            <feFlood flood-opacity="0" result="BackgroundImageFix" />
            <feBlend mode="normal" in="SourceGraphic" in2="BackgroundImageFix" result="shape" />
            <feGaussianBlur stdDeviation="0.2" result="effect1_foregroundBlur_663_803" />
        </filter>
        <filter id="filter13_f_663_803" x="23.1801" y="28.5378" width="8.66621" height="8.20787"
            filterUnits="userSpaceOnUse" color-interpolation-filters="sRGB">
            <feFlood flood-opacity="0" result="BackgroundImageFix" />
            <feBlend mode="normal" in="SourceGraphic" in2="BackgroundImageFix" result="shape" />
            <feGaussianBlur stdDeviation="0.2" result="effect1_foregroundBlur_663_803" />
        </filter>
        <linearGradient id="paint0_linear_663_803" x1="41.7644" y1="21.8059" x2="41.7644" y2="23.6511"
            gradientUnits="userSpaceOnUse">
            <stop stop-color="#3F6928" />
            <stop offset="1" stop-color="#3F6928" stop-opacity="0" />
        </linearGradient>
        <linearGradient id="paint1_linear_663_803" x1="31.6121" y1="39.7532" x2="32.1703" y2="38.3199"
            gradientUnits="userSpaceOnUse">
            <stop stop-color="#4A5B3B" />
            <stop offset="1" stop-color="#4A5B3B" stop-opacity="0" />
        </linearGradient>
        <linearGradient id="paint2_linear_663_803" x1="33.7009" y1="27.9264" x2="34.3785" y2="26.0569"
            gradientUnits="userSpaceOnUse">
            <stop stop-color="#4A5B3B" />
            <stop offset="1" stop-color="#4A5B3B" stop-opacity="0" />
        </linearGradient>
        <radialGradient id="paint3_radial_663_803" cx="0" cy="0" r="1" gradientUnits="userSpaceOnUse"
            gradientTransform="translate(44.5986 41.3076) rotate(163.277) scale(2.96229 4.55632)">
            <stop stop-color="#4A5B3B" />
            <stop offset="1" stop-color="#4A5B3B" stop-opacity="0" />
        </radialGradient>
        <linearGradient id="paint4_linear_663_803" x1="42.3954" y1="42.5222" x2="42.1029" y2="41.6228"
            gradientUnits="userSpaceOnUse">
            <stop stop-color="#4A5B3B" />
            <stop offset="1" stop-color="#4A5B3B" stop-opacity="0" />
        </linearGradient>
        <linearGradient id="paint5_linear_663_803" x1="45.8421" y1="28.3627" x2="45.4058" y2="27.473"
            gradientUnits="userSpaceOnUse">
            <stop stop-color="#4A5B3B" />
            <stop offset="1" stop-color="#4A5B3B" stop-opacity="0" />
        </linearGradient>
        <linearGradient id="paint6_linear_663_803" x1="46.4978" y1="27.1732" x2="44.7257" y2="27.6559"
            gradientUnits="userSpaceOnUse">
            <stop stop-color="#4A5B3B" />
            <stop offset="1" stop-color="#4A5B3B" stop-opacity="0" />
        </linearGradient>
        <linearGradient id="paint7_linear_663_803" x1="36.8866" y1="26.5639" x2="43.4752" y2="28.8308"
            gradientUnits="userSpaceOnUse">
            <stop stop-color="#608246" />
            <stop offset="1" stop-color="#608246" stop-opacity="0" />
        </linearGradient>
        <linearGradient id="paint8_linear_663_803" x1="33.433" y1="38.3321" x2="43.9971" y2="41.2108"
            gradientUnits="userSpaceOnUse">
            <stop stop-color="#648746" />
            <stop offset="1" stop-color="#648746" stop-opacity="0" />
        </linearGradient>
        <linearGradient id="paint9_linear_663_803" x1="43.8313" y1="40.5015" x2="33.2648" y2="43.3802"
            gradientUnits="userSpaceOnUse">
            <stop stop-color="#648746" />
            <stop offset="1" stop-color="#648746" stop-opacity="0" />
        </linearGradient>
        <linearGradient id="paint10_linear_663_803" x1="47.1341" y1="26.2202" x2="36.5699" y2="29.0964"
            gradientUnits="userSpaceOnUse">
            <stop stop-color="#648746" />
            <stop offset="1" stop-color="#648746" stop-opacity="0" />
        </linearGradient>
        <linearGradient id="paint11_linear_663_803" x1="42.0153" y1="26.2421" x2="42.0153" y2="46.8878"
            gradientUnits="userSpaceOnUse">
            <stop stop-color="#608246" />
            <stop offset="1" stop-color="#728C5B" />
        </linearGradient>
        <radialGradient id="paint12_radial_663_803" cx="0" cy="0" r="1" gradientUnits="userSpaceOnUse"
            gradientTransform="translate(35.5876 49.2862) rotate(-90) scale(5.79126 23.1651)">
            <stop stop-color="#774336" />
            <stop offset="1" stop-color="#714F4A" />
        </radialGradient>
        <radialGradient id="paint13_radial_663_803" cx="0" cy="0" r="1" gradientUnits="userSpaceOnUse"
            gradientTransform="translate(45.4693 13.845) rotate(180) scale(5.99567 16.9497)">
            <stop stop-color="#A5D949" />
            <stop offset="1" stop-color="#80B93F" />
        </radialGradient>
        <linearGradient id="paint14_linear_663_803" x1="42.7975" y1="6.5008" x2="42.7975" y2="21.1867"
            gradientUnits="userSpaceOnUse">
            <stop stop-color="#9CD740" />
            <stop offset="1" stop-color="#9CD740" stop-opacity="0" />
        </linearGradient>
        <radialGradient id="paint15_radial_663_803" cx="0" cy="0" r="1" gradientUnits="userSpaceOnUse"
            gradientTransform="translate(34.1113 33.6146) rotate(-150.851) scale(24.2396 8.89524)">
            <stop stop-color="#AAE057" />
            <stop offset="1" stop-color="#AAE057" stop-opacity="0" />
        </radialGradient>
        <radialGradient id="paint16_radial_663_803" cx="0" cy="0" r="1" gradientUnits="userSpaceOnUse"
            gradientTransform="translate(37.7057 21.9375) rotate(-150.858) scale(24.2448 8.89584)">
            <stop stop-color="#AAE057" />
            <stop offset="1" stop-color="#AAE057" stop-opacity="0" />
        </radialGradient>
        <radialGradient id="paint17_radial_663_803" cx="0" cy="0" r="1" gradientUnits="userSpaceOnUse"
            gradientTransform="translate(58.5201 28.8548) rotate(139.185) scale(19.7204 8.71304)">
            <stop stop-color="#AAE057" />
            <stop offset="1" stop-color="#AAE057" stop-opacity="0" />
        </radialGradient>
        <radialGradient id="paint18_radial_663_803" cx="0" cy="0" r="1" gradientUnits="userSpaceOnUse"
            gradientTransform="translate(58.9754 27.4243) rotate(123.495) scale(5.51661 1.2782)">
            <stop stop-color="#ACE461" />
            <stop offset="1" stop-color="#ACE461" stop-opacity="0" />
        </radialGradient>
        <radialGradient id="paint19_radial_663_803" cx="0" cy="0" r="1" gradientUnits="userSpaceOnUse"
            gradientTransform="translate(60.5188 15.1095) rotate(139.185) scale(19.7204 8.71304)">
            <stop stop-color="#AAE057" />
            <stop offset="1" stop-color="#AAE057" stop-opacity="0" />
        </radialGradient>
        <radialGradient id="paint20_radial_663_803" cx="0" cy="0" r="1" gradientUnits="userSpaceOnUse"
            gradientTransform="translate(60.974 13.6793) rotate(123.495) scale(5.51661 1.2782)">
            <stop stop-color="#ACE461" />
            <stop offset="1" stop-color="#ACE461" stop-opacity="0" />
        </radialGradient>
        <radialGradient id="paint21_radial_663_803" cx="0" cy="0" r="1" gradientUnits="userSpaceOnUse"
            gradientTransform="translate(51.7981 70.9945) rotate(-140.346) scale(19.5894 19.0216)">
            <stop offset="0.171" stop-color="#FFBB7A" />
            <stop offset="1" stop-color="#CF7D5B" />
        </radialGradient>
        <linearGradient id="paint22_linear_663_803" x1="20.6432" y1="66.4974" x2="31.7631" y2="65.8027"
            gradientUnits="userSpaceOnUse">
            <stop stop-color="#B17A60" />
            <stop offset="1" stop-color="#B17A60" stop-opacity="0" />
        </linearGradient>
        <linearGradient id="paint23_linear_663_803" x1="39.0171" y1="69.927" x2="39.0171" y2="73.8879"
            gradientUnits="userSpaceOnUse">
            <stop offset="0.011" stop-color="#D37082" stop-opacity="0" />
            <stop offset="1" stop-color="#D37082" />
        </linearGradient>
        <linearGradient id="paint24_linear_663_803" x1="39.0171" y1="58.3147" x2="39.0171" y2="59.6919"
            gradientUnits="userSpaceOnUse">
            <stop stop-color="#C87156" />
            <stop offset="1" stop-color="#C87156" stop-opacity="0" />
        </linearGradient>
        <radialGradient id="paint25_radial_663_803" cx="0" cy="0" r="1" gradientUnits="userSpaceOnUse"
            gradientTransform="translate(51.7969 56.216) rotate(-132.669) scale(18.8544 14.6029)">
            <stop offset="0.313" stop-color="#FFBD80" />
            <stop offset="1" stop-color="#E09369" />
        </radialGradient>
        <linearGradient id="paint26_linear_663_803" x1="18.2813" y1="58.4902" x2="41.4375" y2="58.4902"
            gradientUnits="userSpaceOnUse">
            <stop stop-color="#AE7F61" />
            <stop offset="1" stop-color="#AE7F61" stop-opacity="0" />
        </linearGradient>
        <linearGradient id="paint27_linear_663_803" x1="39.0171" y1="57.3958" x2="39.0171" y2="58.4902"
            gradientUnits="userSpaceOnUse">
            <stop stop-color="#D1556C" stop-opacity="0" />
            <stop offset="1" stop-color="#D1556C" />
        </linearGradient>
        <linearGradient id="paint28_linear_663_803" x1="39.0171" y1="47.9578" x2="39.0171" y2="49.5227"
            gradientUnits="userSpaceOnUse">
            <stop stop-color="#E6AB68" />
            <stop offset="1" stop-color="#E6AB68" stop-opacity="0" />
        </linearGradient>
        <linearGradient id="paint29_linear_663_803" x1="-nan" y1="-nan" x2="-nan" y2="-nan"
            gradientUnits="userSpaceOnUse">
            <stop stop-color="#FCD08F" stop-opacity="0" />
            <stop offset="0.287" stop-color="#FFCD91" />
            <stop offset="0.795" stop-color="#FCD08F" stop-opacity="0" />
        </linearGradient>
        <linearGradient id="paint30_linear_663_803" x1="44.6674" y1="6.1742" x2="44.6674" y2="23.3439"
            gradientUnits="userSpaceOnUse">
            <stop stop-color="#B9EE6E" />
            <stop offset="1" stop-color="#B9EE6E" stop-opacity="0" />
        </linearGradient>
        <radialGradient id="paint31_radial_663_803" cx="0" cy="0" r="1" gradientUnits="userSpaceOnUse"
            gradientTransform="translate(32.5651 19.539) rotate(131.285) scale(2.07803 370.207)">
            <stop stop-color="#B3E468" />
            <stop offset="1" stop-color="#B3E468" stop-opacity="0" />
        </radialGradient>
        <radialGradient id="paint32_radial_663_803" cx="0" cy="0" r="1" gradientUnits="userSpaceOnUse"
            gradientTransform="translate(29.1525 31.7265) rotate(131.285) scale(2.07803 370.208)">
            <stop stop-color="#B3E468" />
            <stop offset="1" stop-color="#B3E468" stop-opacity="0" />
        </radialGradient>
    </defs>
</svg>
